{
	"results": [{
		"vote_count": 544,
		"id": 427641,
		"video": false,
		"vote_average": 5.9,
		"title": "Rampage",
		"popularity": 147.905209,
		"poster_path": "/30oXQKwibh0uANGMs0Sytw3uN22.jpg",
		"original_language": "en",
		"original_title": "Rampage",
		"genre_ids": [
			28,
			12,
			878
		],
		"backdrop_path": "/wrqUiMXttHE4UBFMhLHlN601MZh.jpg",
		"adult": false,
		"overview": "Primatologist Davis Okoye shares an unshakable bond with George, the extraordinarily intelligent, silverback gorilla who has been in his care since birth.  But a rogue genetic experiment gone awry mutates this gentle ape into a raging creature of enormous size.  To make matters worse, it’s soon discovered there are other similarly altered animals.  As these newly created alpha predators tear across North America, destroying everything in their path, Okoye teams with a discredited genetic engineer to secure an antidote, fighting his way through an ever-changing battlefield, not only to halt a global catastrophe but to save the fearsome creature that was once his friend.",
		"release_date": "2018-04-12"
	}, {
		"vote_count": 1063,
		"id": 401981,
		"video": false,
		"vote_average": 6.5,
		"title": "Red Sparrow",
		"popularity": 128.334969,
		"poster_path": "/vLCogyfQGxVLDC1gqUdNAIkc29L.jpg",
		"original_language": "en",
		"original_title": "Red Sparrow",
		"genre_ids": [
			9648,
			53
		],
		"backdrop_path": "/sGzuQYSTwJvLBc2PnuSVLHhuFeh.jpg",
		"adult": false,
		"overview": "Prima ballerina, Dominika Egorova faces a bleak and uncertain future after she suffers an injury that ends her career. She soon turns to Sparrow School, a secret intelligence service that trains exceptional young people to use their minds and bodies as weapons. Dominika emerges as the most dangerous Sparrow after completing the sadistic training process. As she comes to terms with her new abilities, she meets a CIA agent who tries to convince her that he is the only person she can trust.",
		"release_date": "2018-03-01"
	}, {
		"vote_count": 53,
		"id": 383498,
		"video": false,
		"vote_average": 7.8,
		"title": "Deadpool 2",
		"popularity": 93.099752,
		"poster_path": "/to0spRl1CMDvyUbOnbb4fTk3VAd.jpg",
		"original_language": "en",
		"original_title": "Deadpool 2",
		"genre_ids": [
			28,
			35,
			878
		],
		"backdrop_path": "/3P52oz9HPQWxcwHOwxtyrVV1LKi.jpg",
		"adult": false,
		"overview": "Wisecracking mercenary Deadpool battles the evil and powerful Cable and other bad guys to save a boy's life.",
		"release_date": "2018-05-15"
	}, {
		"vote_count": 1016,
		"id": 447332,
		"video": false,
		"vote_average": 7.3,
		"title": "A Quiet Place",
		"popularity": 55.114259,
		"poster_path": "/nAU74GmpUk7t5iklEp3bufwDq4n.jpg",
		"original_language": "en",
		"original_title": "A Quiet Place",
		"genre_ids": [
			18,
			27,
			53,
			878
		],
		"backdrop_path": "/roYyPiQDQKmIKUEhO912693tSja.jpg",
		"adult": false,
		"overview": "A family is forced to live in silence while hiding from creatures that hunt by sound.",
		"release_date": "2018-04-05"
	}, {
		"vote_count": 8,
		"id": 348350,
		"video": false,
		"vote_average": 0,
		"title": "Solo: A Star Wars Story",
		"popularity": 42.708345,
		"poster_path": "/3IGbjc5ZC5yxim5W0sFING2kdcz.jpg",
		"original_language": "en",
		"original_title": "Solo: A Star Wars Story",
		"genre_ids": [
			28,
			12,
			878
		],
		"backdrop_path": "/7LZ0K4FsALrt7OeNIGOVLNuKQRU.jpg",
		"adult": false,
		"overview": "Through a series of daring escapades deep within a dark and dangerous criminal underworld, Han Solo meets his mighty future copilot Chewbacca and encounters the notorious gambler Lando Calrissian.",
		"release_date": "2018-05-24"
	}, {
		"vote_count": 276,
		"id": 476926,
		"video": false,
		"vote_average": 5.4,
		"title": "The Titan",
		"popularity": 39.438639,
		"poster_path": "/qRmQazyIBZR4pQIk9VruiZul0Au.jpg",
		"original_language": "en",
		"original_title": "The Titan",
		"genre_ids": [
			878,
			53
		],
		"backdrop_path": "/lvI088LImIcFNwLcniGyKMRbAK7.jpg",
		"adult": false,
		"overview": "On a bleak future Earth, a soldier endures a radical genetic transformation to save humanity. But his wife fears he's becoming more creature than man.",
		"release_date": "2018-03-30"
	}, {
		"vote_count": 9,
		"id": 385332,
		"video": false,
		"vote_average": 6,
		"title": "Terminal",
		"popularity": 34.871011,
		"poster_path": "/xi7pA3lL6Wb78p6Y6PgWoHDMjrM.jpg",
		"original_language": "en",
		"original_title": "Terminal",
		"genre_ids": [
			53,
			18,
			80
		],
		"backdrop_path": "/bwvxvrHH3nTbcwpEcJhA72kkI94.jpg",
		"adult": false,
		"overview": "In the dark heart of a sprawling, anonymous city, two assassins carrying out a sinister mission, a teacher battles a fatal illness, and an enigmatic janitor and a curious waitress leading dangerous double lives. Murderous consequences unravel in the dead of night as their lives all intertwine at the hands of a mysterious criminal mastermind hell-bent on revenge.",
		"release_date": "2018-05-11"
	}, {
		"vote_count": 0,
		"id": 490214,
		"video": false,
		"vote_average": 0,
		"title": "Iceman 2",
		"popularity": 34.667523,
		"poster_path": "/enZENHd2gwVAw4sJKJxtJl1vJ09.jpg",
		"original_language": "cn",
		"original_title": "时空行者2",
		"genre_ids": [
			28,
			35,
			36
		],
		"backdrop_path": null,
		"adult": false,
		"overview": "The imperial guard and his three traitorous childhood friends ordered to hunt him down get accidentally buried and kept frozen in time. 400 years later pass and they are defrosted continuing the battle they left behind",
		"release_date": "2018-05-18"
	}, {
		"vote_count": 435,
		"id": 384680,
		"video": false,
		"vote_average": 6.4,
		"title": "Hostiles",
		"popularity": 34.219108,
		"poster_path": "/rqoezyB51GfhiloOB5ZErg5HXas.jpg",
		"original_language": "en",
		"original_title": "Hostiles",
		"genre_ids": [
			12,
			18,
			37,
			36
		],
		"backdrop_path": "/ozdXqMwijV192aSrojjFQMGeWSh.jpg",
		"adult": false,
		"overview": "A legendary Native American-hating Army captain nearing retirement in 1892 is given one last assignment: to escort a Cheyenne chief and his family through dangerous territory back to his Montana reservation.",
		"release_date": "2017-12-22"
	}, {
		"vote_count": 105,
		"id": 437557,
		"video": false,
		"vote_average": 6.5,
		"title": "Blockers",
		"popularity": 33.597254,
		"poster_path": "/cx0LpfM6Drla8uzFfMT09uqKPRu.jpg",
		"original_language": "en",
		"original_title": "Blockers",
		"genre_ids": [
			35
		],
		"backdrop_path": "/fqPIDVSTl6f1l02fb2rRVYPl5JE.jpg",
		"adult": false,
		"overview": "When three parents discover their daughters’ pact to lose their virginity at prom, they launch a covert one-night operation to stop the teens from sealing the deal.",
		"release_date": "2018-03-30"
	}, {
		"vote_count": 102,
		"id": 396806,
		"video": false,
		"vote_average": 6,
		"title": "Anon",
		"popularity": 31.772465,
		"poster_path": "/xhBTO9n3fxy3HJt7WlR9h9vvVmk.jpg",
		"original_language": "en",
		"original_title": "Anon",
		"genre_ids": [
			878,
			53
		],
		"backdrop_path": "/arYvUXhpNRU2GQQut67P5cR0c5m.jpg",
		"adult": false,
		"overview": "Set in a near-future world where there is no privacy, ignorance or anonymity, our private memories are recorded and crime almost ceases to exist. In trying to solve a series of unsolved murders, Sal Frieland stumbles onto a young woman who appears to have subverted the system and disappeared. She has no identity, no history and no record. Sal realizes it may not be the end of crime but the beginning. Known only as 'The Girl', Sal must find her before he becomes the next victim.",
		"release_date": "2018-05-03"
	}, {
		"vote_count": 510,
		"id": 429351,
		"video": false,
		"vote_average": 4.8,
		"title": "12 Strong",
		"popularity": 28.872703,
		"poster_path": "/j18021qCeRi3yUBtqd2UFj1c0RQ.jpg",
		"original_language": "en",
		"original_title": "12 Strong",
		"genre_ids": [
			10752,
			18,
			36
		],
		"backdrop_path": "/wacEk5YSNE41QeKseilyytksXmv.jpg",
		"adult": false,
		"overview": "A team of CIA agents and special forces head into Afghanistan in the aftermath of the September 11th attacks in an attempt to dismantle the Taliban.",
		"release_date": "2018-01-18"
	}, {
		"vote_count": 213,
		"id": 381719,
		"video": false,
		"vote_average": 6.4,
		"title": "Peter Rabbit",
		"popularity": 27.556811,
		"poster_path": "/2yjSvEDuM3rLDng40erLsWkQRfn.jpg",
		"original_language": "en",
		"original_title": "Peter Rabbit",
		"genre_ids": [
			16,
			12,
			10751
		],
		"backdrop_path": "/e9dVo1OXZL6sWinc9uIS0Foo4QG.jpg",
		"adult": false,
		"overview": "Peter Rabbit's feud with Mr. McGregor escalates to greater heights than ever before as they rival for the affections of the warm-hearted animal lover who lives next door.",
		"release_date": "2018-02-07"
	}, {
		"vote_count": 22,
		"id": 454619,
		"video": false,
		"vote_average": 5.2,
		"title": "Overboard",
		"popularity": 27.220762,
		"poster_path": "/gaHknuun1VPPugkTsSfB8PejKVg.jpg",
		"original_language": "en",
		"original_title": "Overboard",
		"genre_ids": [
			10749,
			35
		],
		"backdrop_path": "/6PQyCsluWxE0LPlp2YB6IkMqVQj.jpg",
		"adult": false,
		"overview": "A spoiled, wealthy yacht owner is thrown overboard and becomes the target of revenge from his mistreated employee. A remake of the 1987 comedy.",
		"release_date": "2018-05-03"
	}, {
		"vote_count": 279,
		"id": 398181,
		"video": false,
		"vote_average": 6.4,
		"title": "You Were Never Really Here",
		"popularity": 25.169269,
		"poster_path": "/ktPbjD6nYg5NxmeTt72Iqaw5GD0.jpg",
		"original_language": "en",
		"original_title": "You Were Never Really Here",
		"genre_ids": [
			18,
			53,
			80
		],
		"backdrop_path": "/g2yZ1kiGwLO5AUSmtsEJeFEWghJ.jpg",
		"adult": false,
		"overview": "A traumatised veteran, unafraid of violence, tracks down missing girls for a living. When a job spins out of control, Joe's nightmares overtake him as a conspiracy is uncovered leading to what may be his death trip or his awakening.",
		"release_date": "2017-11-08"
	}, {
		"vote_count": 216,
		"id": 449176,
		"video": false,
		"vote_average": 8.4,
		"title": "Love, Simon",
		"popularity": 23.108176,
		"poster_path": "/5YUYg5q7QfC4IoNwNUtiwdiYKPr.jpg",
		"original_language": "en",
		"original_title": "Love, Simon",
		"genre_ids": [
			35,
			18,
			10749
		],
		"backdrop_path": "/rqMEeajyzSF4PpJtdCB816Iz8Vr.jpg",
		"adult": false,
		"overview": "Everyone deserves a great love story. But for seventeen-year old Simon Spier it's a little more complicated: he's yet to tell his family or friends he's gay and he doesn't know the identity of the anonymous classmate he's fallen for online.",
		"release_date": "2018-03-16"
	}, {
		"vote_count": 0,
		"id": 502682,
		"video": false,
		"vote_average": 0,
		"title": "Book Club",
		"popularity": 21.314134,
		"poster_path": "/zHGf3PWSqwt3X1UEIO2ythLwvKO.jpg",
		"original_language": "en",
		"original_title": "Book Club",
		"genre_ids": [
			35,
			10749
		],
		"backdrop_path": null,
		"adult": false,
		"overview": "Four lifelong friends have their lives forever changed after reading Fifty Shades of Grey in their monthly book club.",
		"release_date": "2018-05-18"
	}, {
		"vote_count": 6,
		"id": 425148,
		"video": false,
		"vote_average": 4.7,
		"title": "Show Dogs",
		"popularity": 21.226711,
		"poster_path": "/5LLxjWWQUW77TAeiCPW7ZpXLAec.jpg",
		"original_language": "en",
		"original_title": "Show Dogs",
		"genre_ids": [
			35
		],
		"backdrop_path": "/pk1zexoUCtjFs761W48QyIPzwCj.jpg",
		"adult": false,
		"overview": "Max, a macho, solitary Rottweiler police dog is ordered to go undercover as a primped show dog in a prestigious Dog Show, along with his human partner, to avert a disaster from happening.",
		"release_date": "2018-05-18"
	}, {
		"vote_count": 14,
		"id": 399796,
		"video": false,
		"vote_average": 6.2,
		"title": "Life of the Party",
		"popularity": 20.236439,
		"poster_path": "/A2S4p7mRt0iyClSLSldfjzdYSIp.jpg",
		"original_language": "en",
		"original_title": "Life of the Party",
		"genre_ids": [
			35
		],
		"backdrop_path": "/rKjjyRumoECl2qXjZNj4liLtK1o.jpg",
		"adult": false,
		"overview": "Dumped by her husband, longtime housewife Deanna turns regret into reset by going back to college. Winding up at the same school as her daughter, Deanna plunges headlong into the campus experience -- embracing the fun, the freedom and the frat boys.",
		"release_date": "2018-05-11"
	}, {
		"vote_count": 573,
		"id": 446791,
		"video": false,
		"vote_average": 6.3,
		"title": "All the Money in the World",
		"popularity": 19.431454,
		"poster_path": "/q6nE9Hf0ezszjI4DbCxwzQ73MMy.jpg",
		"original_language": "en",
		"original_title": "All the Money in the World",
		"genre_ids": [
			53,
			18,
			80,
			9648
		],
		"backdrop_path": "/j3gpAEqIXyFj54eA1d7WI93LFuf.jpg",
		"adult": false,
		"overview": "The story of the kidnapping of 16-year-old John Paul Getty III and the desperate attempt by his devoted mother to convince his billionaire grandfather Jean Paul Getty to pay the ransom.",
		"release_date": "2017-12-13"
	}],
	"page": 1,
	"total_results": 325,
	"dates": {
		"maximum": "2018-06-10",
		"minimum": "2018-05-15"
	},
	"total_pages": 17
}